[
  {
    "id": 0,
    "name": "Zogak",
    "address": "952 Schenck Street, Tyro, Virginia, 3077",
    "capacity": 60
  },
  {
    "id": 1,
    "name": "Uncorp",
    "address": "215 Glenmore Avenue, Islandia, Rhode Island, 5730",
    "capacity": 53
  },
  {
    "id": 2,
    "name": "Cognicode",
    "address": "395 Grove Place, National, Colorado, 1201",
    "capacity": 40
  },
  {
    "id": 3,
    "name": "Koffee",
    "address": "464 Ryerson Street, Independence, Virgin Islands, 4383",
    "capacity": 53
  },
  {
    "id": 4,
    "name": "Exerta",
    "address": "279 Frost Street, Belva, Oklahoma, 3342",
    "capacity": 41
  },
  {
    "id": 5,
    "name": "Concility",
    "address": "396 Oceanic Avenue, Belgreen, Wisconsin, 3476",
    "capacity": 56
  },
  {
    "id": 6,
    "name": "Maroptic",
    "address": "804 School Lane, Ebro, California, 5047",
    "capacity": 52
  },
  {
    "id": 7,
    "name": "Neteria",
    "address": "286 Saratoga Avenue, Derwood, Pennsylvania, 585",
    "capacity": 40
  }
]
