[
    {
        "id": 18,
        "name": "Errant Redemption",
        "type": "TwinBike",
        "weight": 7.3681,
        "manuafacturingDate": "19/02/2018",
        "manuafacturingCompany": "ROCKLOGIC",
        "image": "img17.jpg",
        "dockStationCode": 123,
        "status": 1,
        "rentalCost": {
            "deposit": 80000,
            "defaultPrice": 15000,
            "defaultRentalTime": 2,
            "extraRentalPrice": 10000,
            "earlyReturnBikeTime": 1,
            "refundAmount": 5000
        },
        "bateryPercentage": 100
    },
    {
        "id": 19,
        "name": "Miracle Marteau",
        "type": "TwinBike",
        "weight": 7.3681,
        "manuafacturingDate": "01/02/2020",
        "manuafacturingCompany": "ROCKLOGIC",
        "image": "img18.jpg",
        "dockStationCode": 123,
        "status": 1,
        "rentalCost": {
            "deposit": 80000,
            "defaultPrice": 15000,
            "defaultRentalTime": 2,
            "extraRentalPrice": 10000,
            "earlyReturnBikeTime": 1,
            "refundAmount": 5000
        }
    },
    {
        "id": 20,
        "name": "Loup Commandant",
        "type": "TwinBike",
        "weight": 7.3681,
        "manuafacturingDate": "12/12/2017",
        "manuafacturingCompany": "ROCKLOGIC",
        "image": "img19.jpg",
        "dockStationCode": 123,
        "status": 1,
        "rentalCost": {
            "deposit": 80000,
            "defaultPrice": 15000,
            "defaultRentalTime": 2,
            "extraRentalPrice": 10000,
            "earlyReturnBikeTime": 1,
            "refundAmount": 5000
        }
    },
    {
        "id": 21,
        "name": "Singleton Herman",
        "type": "TwinBike",
        "weight": 8.2595,
        "manuafacturingDate": "30/12/2020",
        "manuafacturingCompany": "PYRAMAX",
        "image": "img20.jpg",
        "dockStationCode": 123,
        "status": 1,
        "rentalCost": {
           	"deposit": 80000,
            "defaultPrice": 15000,
            "defaultRentalTime": 2,
            "extraRentalPrice": 10000,
            "earlyReturnBikeTime": 1,
            "refundAmount": 5000
        }
    },
    {
        "id": 22,
        "name": "Chercheur Coyote",
        "type": "TwinBike",
        "weight": 6.6189,
        "manuafacturingDate": "17/11/2020",
        "manuafacturingCompany": "COMVERGES",
        "image": "img21.jpg",
        "dockStationCode": 456,
        "status": 0,
        "rentalCost": {
            "deposit": 80000,
            "defaultPrice": 15000,
            "defaultRentalTime": 2,
            "extraRentalPrice": 10000,
            "earlyReturnBikeTime": 1,
            "refundAmount": 5000
        }
    },
    {
        "id": 23,
        "name": "Revolution Stinger",
        "type": "TwinBike",
        "weight": 6.1396,
        "manuafacturingDate": "17/05/2021",
        "manuafacturingCompany": "EARWAX",
        "image": "img22.jpg",
        "dockStationCode": 789,
        "status": 1,
        "rentalCost": {
            "deposit": 80000,
            "defaultPrice": 15000,
            "defaultRentalTime": 2,
            "extraRentalPrice": 10000,
            "earlyReturnBikeTime": 1,
            "refundAmount": 5000
        }
    },
    {
        "id": 24,
        "name": "Delight Brady",
        "type": "TwinBike",
        "weight": 7.8051,
        "manuafacturingDate": "05/05/2021",
        "manuafacturingCompany": "KYAGURU",
        "image": "img23.jpg",
        "dockStationCode": 357,
        "status": 1,
        "rentalCost": {
            "deposit": 80000,
            "defaultPrice": 15000,
            "defaultRentalTime": 2,
            "extraRentalPrice": 10000,
            "earlyReturnBikeTime": 1,
            "refundAmount": 5000
        }
    }
]