[
  {
    "id": 0,
    "depositAmount": 16.7407,
    "startOfRentTime": "2018-05-17 08:54:10",
    "endOfRentTime": "2021-06-10T02:05:55",
    "bankAccount": "61cc7401ef5fe072e1c0f594",
    "rentedBikeID": 123
  },
  {
    "id": 1,
    "depositAmount": 14.3163,
    "startOfRentTime": "2015-09-25T04:16:39",
    "endOfRentTime": "2021-11-22T06:13:09",
    "bankAccount": "61cc7401b571ca043f576b33",
    "rentedBikeID": 789
    
  },
  {
    "id": 2,
    "depositAmount": 18.535,
    "startOfRentTime": "2017-07-06T01:19:30",
    "endOfRentTime": "2020-02-22T09:23:41",
    "bankAccount": "61cc7401b81bced534bfd184",
    "rentedBikeID": 123
  },
  {
    "id": 3,
    "depositAmount": 19.2161,
    "startOfRentTime": "2020-06-01T08:37:58",
    "endOfRentTime": "2021-04-08T07:49:17",
    "bankAccount": "61cc74014954db793195f43f",
    "rentedBikeID": 789
  },
  {
    "id": 4,
    "depositAmount": 11.1523,
    "startOfRentTime": "2016-07-01T02:43:17",
    "endOfRentTime": "2021-12-18T11:27:17",
    "bankAccount": "61cc74011a951b4fd9a978d1",
    "rentedBikeID": 345
  },
  {
    "id": 5,
    "depositAmount": 14.1969,
    "startOfRentTime": "2019-02-06T01:23:46",
    "endOfRentTime": "2020-08-21T03:59:54",
    "bankAccount": "61cc740187a27d1f6c547d65",
    "rentedBikeID": 123
  },
  {
    "id": 6,
    "depositAmount": 12.8097,
    "startOfRentTime": "2021-03-03T08:46:19",
    "endOfRentTime": "2021-05-27T08:35:18",
    "bankAccount": "61cc74015cf205556a20d578",
    "rentedBikeID": 123
  },
  {
    "id": 7,
    "depositAmount": 11.8449,
    "startOfRentTime": "2017-12-28T05:42:26",
    "endOfRentTime": "2020-07-30T11:14:05",
    "bankAccount": "61cc7401b104d075a769ecf6",
    "rentedBikeID": 345
  },
  {
    "id": 8,
    "depositAmount": 16.8497,
    "startOfRentTime": "2018-12-23T07:47:17",
    "endOfRentTime": "2021-01-01T01:22:23",
    "bankAccount": "61cc740179d5ffb38baed473",
    "rentedBikeID": 123
  }
]
